\babel@toc {italian}{}
\babel@toc {italian}{}
\contentsline {chapter}{Indice}{i}{section*.1}%
\contentsline {chapter}{\chapternumberline {1}Didattica generale (1)}{1}{chapter.1}%
\contentsline {section}{\numberline {1.1}12/11/2021}{1}{section.1.1}%
\contentsline {subsection}{\numberline {1.1.1}Curricolo verticale}{1}{subsection.1.1.1}%
\contentsline {subsubsection}{\numberline {1.1.1.1}Programmazione e progettazione}{2}{subsubsection.1.1.1.1}%
\contentsline {section}{\numberline {1.2}14/11/2021}{3}{section.1.2}%
\contentsline {subsection}{\numberline {1.2.1}Interpretazione dell'apprendimento secondo tre modelli (vedi documento)}{3}{subsection.1.2.1}%
\contentsline {subsubsection}{\numberline {1.2.1.1}Riproduzione (o esecuzione)}{3}{subsubsection.1.2.1.1}%
\contentsline {paragraph}{Parole chiave}{3}{section*.2}%
\contentsline {paragraph}{Procedure didattiche}{3}{section*.3}%
\contentsline {paragraph}{Risultati attesi}{4}{section*.4}%
\contentsline {paragraph}{Ottiche di valutazione}{4}{section*.5}%
\contentsline {subsubsection}{\numberline {1.2.1.2}Costruzione}{4}{subsubsection.1.2.1.2}%
\contentsline {paragraph}{Parole chiave}{4}{section*.6}%
\contentsline {paragraph}{Procedure didattiche}{4}{section*.7}%
\contentsline {paragraph}{Risultati attesi}{4}{section*.8}%
\contentsline {paragraph}{Ottiche di valutazione}{5}{section*.9}%
\contentsline {subsubsection}{\numberline {1.2.1.3}Scoperta}{5}{subsubsection.1.2.1.3}%
\contentsline {paragraph}{Parole chiave}{5}{section*.10}%
\contentsline {paragraph}{Procedure didattiche}{5}{section*.11}%
\contentsline {paragraph}{Risultati attesi}{5}{section*.12}%
\contentsline {paragraph}{Ottiche di valutazione}{5}{section*.13}%
\contentsline {section}{\numberline {1.3}19/11/2021}{5}{section.1.3}%
\contentsline {subsection}{\numberline {1.3.1}Definizione di didattica}{5}{subsection.1.3.1}%
\contentsline {paragraph}{Breve storia della didattica}{6}{section*.14}%
\contentsline {paragraph}{Estensione del campo della didattica}{6}{section*.15}%
\contentsline {paragraph}{Specificazione dell'oggetto della didattica in relazione alla disciplina}{7}{section*.16}%
\contentsline {paragraph}{Sviluppo di metodologie didattiche}{7}{section*.17}%
\contentsline {subsubsection}{\numberline {1.3.1.1}La didattica e le altre scienze dell'educazione}{7}{subsubsection.1.3.1.1}%
\contentsline {subsection}{\numberline {1.3.2}L'azione di insegnamento}{7}{subsection.1.3.2}%
\contentsline {subsubsection}{\numberline {1.3.2.1}Le competenze dell'insegnate}{8}{subsubsection.1.3.2.1}%
\contentsline {subsection}{\numberline {1.3.3}L'insegnamento come azione pratico-poietica}{9}{subsection.1.3.3}%
\contentsline {subsubsection}{\numberline {1.3.3.1}La mediazione e i mediatori didattici}{10}{subsubsection.1.3.3.1}%
\contentsline {subsubsection}{\numberline {1.3.3.2}Trasposizione didattica}{10}{subsubsection.1.3.3.2}%
\contentsline {subsubsection}{\numberline {1.3.3.3}Mediatori didattici}{11}{subsubsection.1.3.3.3}%
\contentsline {section}{\numberline {1.4}20/11/2021}{11}{section.1.4}%
\contentsline {subsection}{\numberline {1.4.1}Le competenze}{12}{subsection.1.4.1}%
\contentsline {subsubsection}{\numberline {1.4.1.1}Le competenze nella raccomandazione del Consiglio Europeo}{12}{subsubsection.1.4.1.1}%
\contentsline {subsubsection}{\numberline {1.4.1.2}Traguardi di sviluppo delle competenze e obiettivi di apprendimento}{14}{subsubsection.1.4.1.2}%
\contentsline {subsection}{\numberline {1.4.2}La didattica per competenze}{14}{subsection.1.4.2}%
\contentsline {subsection}{\numberline {1.4.3}Il curricolo}{16}{subsection.1.4.3}%
\contentsline {subsubsection}{\numberline {1.4.3.1}La progettazione curricolare}{17}{subsubsection.1.4.3.1}%
\contentsline {subsubsection}{\numberline {1.4.3.2}Dalla didattica per obiettivi alla didattica del ``non uno''}{18}{subsubsection.1.4.3.2}%
\contentsline {subsubsection}{\numberline {1.4.3.3}La progettazione educativa e la programmazione didattica}{19}{subsubsection.1.4.3.3}%
\contentsline {subsection}{\numberline {1.4.4}Didattica inclusiva}{21}{subsection.1.4.4}%
\contentsline {subsubsection}{\numberline {1.4.4.1}Individualizzazione e personalizzazione}{21}{subsubsection.1.4.4.1}%
\contentsline {paragraph}{Individualizzazione}{21}{section*.18}%
\contentsline {paragraph}{Personalizzazione}{21}{section*.19}%
\contentsline {subsubsection}{\numberline {1.4.4.2}I modelli operativi}{22}{subsubsection.1.4.4.2}%
\contentsline {subsection}{\numberline {1.4.5}Gli obiettivi}{22}{subsection.1.4.5}%
\contentsline {chapter}{\chapternumberline {2}Pedagogia speciale (1)}{23}{chapter.2}%
\contentsline {section}{\numberline {2.1}25/11/2021}{23}{section.2.1}%
\contentsline {subsection}{\numberline {2.1.1}Il concetto di disabilità}{23}{subsection.2.1.1}%
\contentsline {subsubsection}{\numberline {2.1.1.1}L'approccio medico/assistenziale e quello sociale}{23}{subsubsection.2.1.1.1}%
\contentsline {paragraph}{L'approccio medico/assistenziale}{23}{section*.20}%
\contentsline {paragraph}{Il modello sociale}{23}{section*.21}%
\contentsline {subsubsection}{\numberline {2.1.1.2}Il modello bio-psico-sociale}{24}{subsubsection.2.1.1.2}%
\contentsline {subsubsection}{\numberline {2.1.1.3}L'approccio fondato sui diritti umani}{25}{subsubsection.2.1.1.3}%
\contentsline {subsection}{\numberline {2.1.2}La didattica inclusiva}{27}{subsection.2.1.2}%
\contentsline {subsubsection}{\numberline {2.1.2.1}Integrazione vs inclusione}{27}{subsubsection.2.1.2.1}%
\contentsline {subsection}{\numberline {2.1.3}La zona di sviluppo prossimale}{28}{subsection.2.1.3}%
\contentsline {section}{\numberline {2.2}26/11/2021}{29}{section.2.2}%
\contentsline {subsection}{\numberline {2.2.1}Il rapporto fra la didattica generale e la didattica speciale}{29}{subsection.2.2.1}%
\contentsline {subsection}{\numberline {2.2.2}I mediatori didattici}{30}{subsection.2.2.2}%
\contentsline {chapter}{\chapternumberline {3}Didattica plurilingue}{31}{chapter.3}%
\contentsline {section}{\numberline {3.1}03/12/2021}{31}{section.3.1}%
\contentsline {subsection}{\numberline {3.1.1}Linguaggio e lingua}{31}{subsection.3.1.1}%
\contentsline {subsection}{\numberline {3.1.2}Il linguaggio in relazione alla competenza}{32}{subsection.3.1.2}%
\contentsline {subsection}{\numberline {3.1.3}Le caratteristiche del plurilinguismo e del multilinguismo}{32}{subsection.3.1.3}%
\contentsline {subsubsection}{\numberline {3.1.3.1}Plurilinguismo}{32}{subsubsection.3.1.3.1}%
\contentsline {subsubsection}{\numberline {3.1.3.2}Multilinguismo}{33}{subsubsection.3.1.3.2}%
\contentsline {section}{\numberline {3.2}04/12/2021}{33}{section.3.2}%
\contentsline {paragraph}{La costruzione di un ambiente multilingue}{33}{section*.22}%
\contentsline {subsubsection}{\numberline {3.2.0.1}I copioni dell'ambiente multilingue}{33}{subsubsection.3.2.0.1}%
\contentsline {subsection}{\numberline {3.2.1}Esempi di alternanza linguistica}{35}{subsection.3.2.1}%
\contentsline {paragraph}{Esempio 1}{35}{section*.23}%
\contentsline {paragraph}{Esempio 2}{36}{section*.24}%
\contentsline {section}{\numberline {3.3}17/12/2021}{36}{section.3.3}%
\contentsline {chapter}{\chapternumberline {4}Didattica speciale (2)}{37}{chapter.4}%
\contentsline {section}{\numberline {4.1}18/12/2021}{37}{section.4.1}%
\contentsline {subsection}{\numberline {4.1.1}Mappe concettuali e mappe mentali}{37}{subsection.4.1.1}%
\contentsline {subsubsection}{\numberline {4.1.1.1}Gli strumenti e le metodologie della didattica speciale}{38}{subsubsection.4.1.1.1}%
\contentsline {paragraph}{Metodologie dei gruppi cooperativi}{39}{section*.25}%
\contentsline {paragraph}{Metodologia del mutuo insegnamento}{40}{section*.26}%
\contentsline {paragraph}{Metodologia del co-teaching}{40}{section*.27}%
\contentsline {subsection}{\numberline {4.1.2}Universal Design for Learning (UDL)}{40}{subsection.4.1.2}%
\contentsline {subsection}{\numberline {4.1.3}La dimensione progettuale della scuola inclusiva}{41}{subsection.4.1.3}%
\contentsline {subsubsection}{\numberline {4.1.3.1}PEI e studenti con disabilità certificata}{42}{subsubsection.4.1.3.1}%
\contentsline {subsubsection}{\numberline {4.1.3.2}PDP, studenti con disturbi specifici evolutivi e BES}{43}{subsubsection.4.1.3.2}%
