\relax 
\providecommand\hyper@newdestlabel[2]{}
\providecommand*{\memsetcounter}[2]{}
\providecommand\babel@aux[2]{}
\@nameuse{bbl@beforestart}
\providecommand\HyperFirstAtBeginDocument{\AtBeginDocument}
\HyperFirstAtBeginDocument{\ifx\hyper@anchor\@undefined
\global\let\oldcontentsline\contentsline
\gdef\contentsline#1#2#3#4{\oldcontentsline{#1}{#2}{#3}}
\global\let\oldnewlabel\newlabel
\gdef\newlabel#1#2{\newlabelxx{#1}#2}
\gdef\newlabelxx#1#2#3#4#5#6{\oldnewlabel{#1}{{#2}{#3}}}
\AtEndDocument{\ifx\hyper@anchor\@undefined
\let\contentsline\oldcontentsline
\let\newlabel\oldnewlabel
\fi}
\fi}
\global\let\hyper@last\relax 
\gdef\HyperFirstAtBeginDocument#1{#1}
\providecommand\HyField@AuxAddToFields[1]{}
\providecommand\HyField@AuxAddToCoFields[2]{}
\babel@aux{italian}{}
\babel@aux{italian}{}
\@writefile{toc}{\contentsline {chapter}{Indice}{i}{section*.1}\protected@file@percent }
\@writefile{lof}{\addvspace {10pt}}
\@writefile{lot}{\addvspace {10pt}}
\@writefile{toc}{\contentsline {chapter}{\chapternumberline {1}Didattica generale (1)}{1}{chapter.1}\protected@file@percent }
\@writefile{toc}{\contentsline {section}{\numberline {1.1}12/11/2021}{1}{section.1.1}\protected@file@percent }
\@writefile{toc}{\contentsline {subsection}{\numberline {1.1.1}Curricolo verticale}{1}{subsection.1.1.1}\protected@file@percent }
\@writefile{toc}{\contentsline {subsubsection}{\numberline {1.1.1.1}Programmazione e progettazione}{2}{subsubsection.1.1.1.1}\protected@file@percent }
\@writefile{toc}{\contentsline {section}{\numberline {1.2}14/11/2021}{3}{section.1.2}\protected@file@percent }
\@writefile{toc}{\contentsline {subsection}{\numberline {1.2.1}Interpretazione dell'apprendimento secondo tre modelli (vedi documento)}{3}{subsection.1.2.1}\protected@file@percent }
\@writefile{toc}{\contentsline {subsubsection}{\numberline {1.2.1.1}Riproduzione (o esecuzione)}{3}{subsubsection.1.2.1.1}\protected@file@percent }
\@writefile{toc}{\contentsline {paragraph}{Parole chiave}{3}{section*.2}\protected@file@percent }
\@writefile{toc}{\contentsline {paragraph}{Procedure didattiche}{3}{section*.3}\protected@file@percent }
\@writefile{toc}{\contentsline {paragraph}{Risultati attesi}{4}{section*.4}\protected@file@percent }
\@writefile{toc}{\contentsline {paragraph}{Ottiche di valutazione}{4}{section*.5}\protected@file@percent }
\@writefile{toc}{\contentsline {subsubsection}{\numberline {1.2.1.2}Costruzione}{4}{subsubsection.1.2.1.2}\protected@file@percent }
\@writefile{toc}{\contentsline {paragraph}{Parole chiave}{4}{section*.6}\protected@file@percent }
\@writefile{toc}{\contentsline {paragraph}{Procedure didattiche}{4}{section*.7}\protected@file@percent }
\@writefile{toc}{\contentsline {paragraph}{Risultati attesi}{4}{section*.8}\protected@file@percent }
\@writefile{toc}{\contentsline {paragraph}{Ottiche di valutazione}{5}{section*.9}\protected@file@percent }
\@writefile{toc}{\contentsline {subsubsection}{\numberline {1.2.1.3}Scoperta}{5}{subsubsection.1.2.1.3}\protected@file@percent }
\@writefile{toc}{\contentsline {paragraph}{Parole chiave}{5}{section*.10}\protected@file@percent }
\@writefile{toc}{\contentsline {paragraph}{Procedure didattiche}{5}{section*.11}\protected@file@percent }
\@writefile{toc}{\contentsline {paragraph}{Risultati attesi}{5}{section*.12}\protected@file@percent }
\@writefile{toc}{\contentsline {paragraph}{Ottiche di valutazione}{5}{section*.13}\protected@file@percent }
\@writefile{toc}{\contentsline {section}{\numberline {1.3}19/11/2021}{5}{section.1.3}\protected@file@percent }
\@writefile{toc}{\contentsline {subsection}{\numberline {1.3.1}Definizione di didattica}{5}{subsection.1.3.1}\protected@file@percent }
\@writefile{toc}{\contentsline {paragraph}{Breve storia della didattica}{6}{section*.14}\protected@file@percent }
\@writefile{toc}{\contentsline {paragraph}{Estensione del campo della didattica}{6}{section*.15}\protected@file@percent }
\@writefile{toc}{\contentsline {paragraph}{Specificazione dell'oggetto della didattica in relazione alla disciplina}{7}{section*.16}\protected@file@percent }
\@writefile{toc}{\contentsline {paragraph}{Sviluppo di metodologie didattiche}{7}{section*.17}\protected@file@percent }
\@writefile{toc}{\contentsline {subsubsection}{\numberline {1.3.1.1}La didattica e le altre scienze dell'educazione}{7}{subsubsection.1.3.1.1}\protected@file@percent }
\@writefile{toc}{\contentsline {subsection}{\numberline {1.3.2}L'azione di insegnamento}{7}{subsection.1.3.2}\protected@file@percent }
\@writefile{lof}{\contentsline {figure}{\numberline {1.1}{\ignorespaces Azione educativa: modello triangolare.}}{8}{figure.1.1}\protected@file@percent }
\@writefile{toc}{\contentsline {subsubsection}{\numberline {1.3.2.1}Le competenze dell'insegnate}{8}{subsubsection.1.3.2.1}\protected@file@percent }
\@writefile{lof}{\contentsline {figure}{\numberline {1.2}{\ignorespaces Azione educativa: trasformazione delle conoscenze in competenze nelle situazioni di vita reale nel modello quadrangolare.}}{9}{figure.1.2}\protected@file@percent }
\@writefile{toc}{\contentsline {subsection}{\numberline {1.3.3}L'insegnamento come azione pratico-poietica}{9}{subsection.1.3.3}\protected@file@percent }
\@writefile{toc}{\contentsline {subsubsection}{\numberline {1.3.3.1}La mediazione e i mediatori didattici}{10}{subsubsection.1.3.3.1}\protected@file@percent }
\@writefile{toc}{\contentsline {subsubsection}{\numberline {1.3.3.2}Trasposizione didattica}{10}{subsubsection.1.3.3.2}\protected@file@percent }
\@writefile{lof}{\contentsline {figure}{\numberline {1.3}{\ignorespaces La trasposizione didattica e la fase di mediazione.}}{10}{figure.1.3}\protected@file@percent }
\@writefile{toc}{\contentsline {subsubsection}{\numberline {1.3.3.3}Mediatori didattici}{11}{subsubsection.1.3.3.3}\protected@file@percent }
\@writefile{lof}{\contentsline {figure}{\numberline {1.4}{\ignorespaces I tipi di mediatori didattici in relazione ai modelli di realtà.}}{11}{figure.1.4}\protected@file@percent }
\@writefile{toc}{\contentsline {section}{\numberline {1.4}20/11/2021}{11}{section.1.4}\protected@file@percent }
\@writefile{toc}{\contentsline {subsection}{\numberline {1.4.1}Le competenze}{12}{subsection.1.4.1}\protected@file@percent }
\@writefile{toc}{\contentsline {subsubsection}{\numberline {1.4.1.1}Le competenze nella raccomandazione del Consiglio Europeo}{12}{subsubsection.1.4.1.1}\protected@file@percent }
\@writefile{lof}{\contentsline {figure}{\numberline {1.5}{\ignorespaces La competenza.}}{13}{figure.1.5}\protected@file@percent }
\@writefile{toc}{\contentsline {subsubsection}{\numberline {1.4.1.2}Traguardi di sviluppo delle competenze e obiettivi di apprendimento}{14}{subsubsection.1.4.1.2}\protected@file@percent }
\@writefile{toc}{\contentsline {subsection}{\numberline {1.4.2}La didattica per competenze}{14}{subsection.1.4.2}\protected@file@percent }
\@writefile{lof}{\contentsline {figure}{\numberline {1.6}{\ignorespaces L'iceberg delle competenze}}{15}{figure.1.6}\protected@file@percent }
\@writefile{toc}{\contentsline {subsection}{\numberline {1.4.3}Il curricolo}{16}{subsection.1.4.3}\protected@file@percent }
\@writefile{toc}{\contentsline {subsubsection}{\numberline {1.4.3.1}La progettazione curricolare}{17}{subsubsection.1.4.3.1}\protected@file@percent }
\@writefile{toc}{\contentsline {subsubsection}{\numberline {1.4.3.2}Dalla didattica per obiettivi alla didattica del ``non uno''}{18}{subsubsection.1.4.3.2}\protected@file@percent }
\@writefile{toc}{\contentsline {subsubsection}{\numberline {1.4.3.3}La progettazione educativa e la programmazione didattica}{19}{subsubsection.1.4.3.3}\protected@file@percent }
\@writefile{lot}{\contentsline {table}{\numberline {1.1}{\ignorespaces Tabella riassuntiva dei modelli di apprendimento.}}{20}{table.1.1}\protected@file@percent }
\@writefile{toc}{\contentsline {subsection}{\numberline {1.4.4}Didattica inclusiva}{21}{subsection.1.4.4}\protected@file@percent }
\@writefile{toc}{\contentsline {subsubsection}{\numberline {1.4.4.1}Individualizzazione e personalizzazione}{21}{subsubsection.1.4.4.1}\protected@file@percent }
\@writefile{toc}{\contentsline {paragraph}{Individualizzazione}{21}{section*.18}\protected@file@percent }
\@writefile{toc}{\contentsline {paragraph}{Personalizzazione}{21}{section*.19}\protected@file@percent }
\@writefile{toc}{\contentsline {subsubsection}{\numberline {1.4.4.2}I modelli operativi}{22}{subsubsection.1.4.4.2}\protected@file@percent }
\@writefile{toc}{\contentsline {subsection}{\numberline {1.4.5}Gli obiettivi}{22}{subsection.1.4.5}\protected@file@percent }
\@writefile{lof}{\addvspace {10pt}}
\@writefile{lot}{\addvspace {10pt}}
\@writefile{toc}{\contentsline {chapter}{\chapternumberline {2}Pedagogia speciale (1)}{23}{chapter.2}\protected@file@percent }
\@writefile{toc}{\contentsline {section}{\numberline {2.1}25/11/2021}{23}{section.2.1}\protected@file@percent }
\@writefile{toc}{\contentsline {subsection}{\numberline {2.1.1}Il concetto di disabilità}{23}{subsection.2.1.1}\protected@file@percent }
\@writefile{toc}{\contentsline {subsubsection}{\numberline {2.1.1.1}L'approccio medico/assistenziale e quello sociale}{23}{subsubsection.2.1.1.1}\protected@file@percent }
\@writefile{toc}{\contentsline {paragraph}{L'approccio medico/assistenziale}{23}{section*.20}\protected@file@percent }
\@writefile{toc}{\contentsline {paragraph}{Il modello sociale}{23}{section*.21}\protected@file@percent }
\@writefile{lof}{\contentsline {figure}{\numberline {2.1}{\ignorespaces Il modello bio-psico-sociale ICF. La scuola, e quindi la funzione educativa, si colloca nela ``partecipazione'' alla vita sociale.}}{24}{figure.2.1}\protected@file@percent }
\newlabel{img:icf}{{\M@TitleReference {2.1}{Il modello bio-psico-sociale ICF. La scuola, e quindi la funzione educativa, si colloca nela ``partecipazione'' alla vita sociale.}}{24}{Il modello bio-psico-sociale ICF. La scuola, e quindi la funzione educativa, si colloca nela ``partecipazione'' alla vita sociale}{figure.2.1}{}}
\@writefile{toc}{\contentsline {subsubsection}{\numberline {2.1.1.2}Il modello bio-psico-sociale}{24}{subsubsection.2.1.1.2}\protected@file@percent }
\@writefile{lof}{\contentsline {figure}{\numberline {2.2}{\ignorespaces Il ruolo di facilitatori e barriere nel modello ICF.}}{25}{figure.2.2}\protected@file@percent }
\@writefile{toc}{\contentsline {subsubsection}{\numberline {2.1.1.3}L'approccio fondato sui diritti umani}{25}{subsubsection.2.1.1.3}\protected@file@percent }
\@writefile{toc}{\contentsline {subsection}{\numberline {2.1.2}La didattica inclusiva}{27}{subsection.2.1.2}\protected@file@percent }
\@writefile{toc}{\contentsline {subsubsection}{\numberline {2.1.2.1}Integrazione vs inclusione}{27}{subsubsection.2.1.2.1}\protected@file@percent }
\@writefile{toc}{\contentsline {subsection}{\numberline {2.1.3}La zona di sviluppo prossimale}{28}{subsection.2.1.3}\protected@file@percent }
\@writefile{toc}{\contentsline {section}{\numberline {2.2}26/11/2021}{29}{section.2.2}\protected@file@percent }
\@writefile{toc}{\contentsline {subsection}{\numberline {2.2.1}Il rapporto fra la didattica generale e la didattica speciale}{29}{subsection.2.2.1}\protected@file@percent }
\@writefile{lof}{\contentsline {figure}{\numberline {2.3}{\ignorespaces Sistema integrato di misure di didattica inclusiva e speciale.}}{30}{figure.2.3}\protected@file@percent }
\@writefile{toc}{\contentsline {subsection}{\numberline {2.2.2}I mediatori didattici}{30}{subsection.2.2.2}\protected@file@percent }
\@writefile{lof}{\addvspace {10pt}}
\@writefile{lot}{\addvspace {10pt}}
\@writefile{toc}{\contentsline {chapter}{\chapternumberline {3}Didattica plurilingue}{31}{chapter.3}\protected@file@percent }
\@writefile{toc}{\contentsline {section}{\numberline {3.1}03/12/2021}{31}{section.3.1}\protected@file@percent }
\@writefile{toc}{\contentsline {subsection}{\numberline {3.1.1}Linguaggio e lingua}{31}{subsection.3.1.1}\protected@file@percent }
\@writefile{toc}{\contentsline {subsection}{\numberline {3.1.2}Il linguaggio in relazione alla competenza}{32}{subsection.3.1.2}\protected@file@percent }
\@writefile{toc}{\contentsline {subsection}{\numberline {3.1.3}Le caratteristiche del plurilinguismo e del multilinguismo}{32}{subsection.3.1.3}\protected@file@percent }
\@writefile{toc}{\contentsline {subsubsection}{\numberline {3.1.3.1}Plurilinguismo}{32}{subsubsection.3.1.3.1}\protected@file@percent }
\@writefile{toc}{\contentsline {subsubsection}{\numberline {3.1.3.2}Multilinguismo}{33}{subsubsection.3.1.3.2}\protected@file@percent }
\@writefile{toc}{\contentsline {section}{\numberline {3.2}04/12/2021}{33}{section.3.2}\protected@file@percent }
\@writefile{toc}{\contentsline {paragraph}{La costruzione di un ambiente multilingue}{33}{section*.22}\protected@file@percent }
\@writefile{toc}{\contentsline {subsubsection}{\numberline {3.2.0.1}I copioni dell'ambiente multilingue}{33}{subsubsection.3.2.0.1}\protected@file@percent }
\@writefile{toc}{\contentsline {subsection}{\numberline {3.2.1}Esempi di alternanza linguistica}{35}{subsection.3.2.1}\protected@file@percent }
\@writefile{toc}{\contentsline {paragraph}{Esempio 1}{35}{section*.23}\protected@file@percent }
\@writefile{toc}{\contentsline {paragraph}{Esempio 2}{36}{section*.24}\protected@file@percent }
\@writefile{toc}{\contentsline {section}{\numberline {3.3}17/12/2021}{36}{section.3.3}\protected@file@percent }
\@writefile{lof}{\addvspace {10pt}}
\@writefile{lot}{\addvspace {10pt}}
\@writefile{toc}{\contentsline {chapter}{\chapternumberline {4}Didattica speciale (2)}{37}{chapter.4}\protected@file@percent }
\@writefile{toc}{\contentsline {section}{\numberline {4.1}18/12/2021}{37}{section.4.1}\protected@file@percent }
\@writefile{toc}{\contentsline {subsection}{\numberline {4.1.1}Mappe concettuali e mappe mentali}{37}{subsection.4.1.1}\protected@file@percent }
\@writefile{toc}{\contentsline {subsubsection}{\numberline {4.1.1.1}Gli strumenti e le metodologie della didattica speciale}{38}{subsubsection.4.1.1.1}\protected@file@percent }
\@writefile{toc}{\contentsline {paragraph}{Metodologie dei gruppi cooperativi}{39}{section*.25}\protected@file@percent }
\@writefile{toc}{\contentsline {paragraph}{Metodologia del mutuo insegnamento}{40}{section*.26}\protected@file@percent }
\@writefile{toc}{\contentsline {paragraph}{Metodologia del co-teaching}{40}{section*.27}\protected@file@percent }
\@writefile{toc}{\contentsline {subsection}{\numberline {4.1.2}Universal Design for Learning (UDL)}{40}{subsection.4.1.2}\protected@file@percent }
\@writefile{lof}{\contentsline {figure}{\numberline {4.1}{\ignorespaces Le linee guida dello Universal Design for Learning}}{41}{figure.4.1}\protected@file@percent }
\@writefile{toc}{\contentsline {subsection}{\numberline {4.1.3}La dimensione progettuale della scuola inclusiva}{41}{subsection.4.1.3}\protected@file@percent }
\@writefile{lof}{\contentsline {figure}{\numberline {4.2}{\ignorespaces I livelli di progettazione scolastica}}{42}{figure.4.2}\protected@file@percent }
\@writefile{toc}{\contentsline {subsubsection}{\numberline {4.1.3.1}PEI e studenti con disabilità certificata}{42}{subsubsection.4.1.3.1}\protected@file@percent }
\@writefile{toc}{\contentsline {subsubsection}{\numberline {4.1.3.2}PDP, studenti con disturbi specifici evolutivi e BES}{43}{subsubsection.4.1.3.2}\protected@file@percent }
\newlabel{sec:PDP}{{\M@TitleReference {4.1.3.2}{PDP, studenti con disturbi specifici evolutivi e BES}}{43}{PDP, studenti con disturbi specifici evolutivi e BES}{subsubsection.4.1.3.2}{}}
\memsetcounter{lastsheet}{46}
\memsetcounter{lastpage}{44}
