%!PS-Adobe-3.0 EPSF-3.0
%%Creator: cairo 1.16.0 (https://cairographics.org)
%%CreationDate: Mon Jan 17 18:21:02 2022
%%Pages: 1
%%DocumentData: Clean7Bit
%%LanguageLevel: 2
%%BoundingBox: 0 0 110 110
%%EndComments
%%BeginProlog
50 dict begin
/q { gsave } bind def
/Q { grestore } bind def
/cm { 6 array astore concat } bind def
/w { setlinewidth } bind def
/J { setlinecap } bind def
/j { setlinejoin } bind def
/M { setmiterlimit } bind def
/d { setdash } bind def
/m { moveto } bind def
/l { lineto } bind def
/c { curveto } bind def
/h { closepath } bind def
/re { exch dup neg 3 1 roll 5 3 roll moveto 0 rlineto
      0 exch rlineto 0 rlineto closepath } bind def
/S { stroke } bind def
/f { fill } bind def
/f* { eofill } bind def
/n { newpath } bind def
/W { clip } bind def
/W* { eoclip } bind def
/BT { } bind def
/ET { } bind def
/BDC { mark 3 1 roll /BDC pdfmark } bind def
/EMC { mark /EMC pdfmark } bind def
/cairo_store_point { /cairo_point_y exch def /cairo_point_x exch def } def
/Tj { show currentpoint cairo_store_point } bind def
/TJ {
  {
    dup
    type /stringtype eq
    { show } { -0.001 mul 0 cairo_font_matrix dtransform rmoveto } ifelse
  } forall
  currentpoint cairo_store_point
} bind def
/cairo_selectfont { cairo_font_matrix aload pop pop pop 0 0 6 array astore
    cairo_font exch selectfont cairo_point_x cairo_point_y moveto } bind def
/Tf { pop /cairo_font exch def /cairo_font_matrix where
      { pop cairo_selectfont } if } bind def
/Td { matrix translate cairo_font_matrix matrix concatmatrix dup
      /cairo_font_matrix exch def dup 4 get exch 5 get cairo_store_point
      /cairo_font where { pop cairo_selectfont } if } bind def
/Tm { 2 copy 8 2 roll 6 array astore /cairo_font_matrix exch def
      cairo_store_point /cairo_font where { pop cairo_selectfont } if } bind def
/g { setgray } bind def
/rg { setrgbcolor } bind def
/d1 { setcachedevice } bind def
/cairo_data_source {
  CairoDataIndex CairoData length lt
    { CairoData CairoDataIndex get /CairoDataIndex CairoDataIndex 1 add def }
    { () } ifelse
} def
/cairo_flush_ascii85_file { cairo_ascii85_file status { cairo_ascii85_file flushfile } if } def
/cairo_image { image cairo_flush_ascii85_file } def
/cairo_imagemask { imagemask cairo_flush_ascii85_file } def
%%EndProlog
%%BeginSetup
%%EndSetup
%%Page: 1 1
%%BeginPageSetup
%%PageBoundingBox: 0 0 110 110
%%EndPageSetup
q 0 0 110 110 rectclip
1 0 0 -1 0 110 cm q
Q q
q
0 0 111 110 re W n
  q
0.109804 0.207843 0.372549 rg
77.324 87.523 m 81.602 84.676 85.352 80.926 88.199 76.648 c 66.375 76.648
 l h
45.523 76.648 m 61.727 93.676 l 66.977 92.773 71.926 90.898 76.273 88.199
 c 64.727 76.648 l h
55.199 14.852 m 33.301 14.852 15.523 32.625 15.523 54.523 c 15.523 62.176
 17.699 69.375 21.449 75.449 c 88.949 75.449 l 92.699 69.375 94.875 62.25
 94.875 54.523 c 94.949 32.625 77.176 14.852 55.199 14.852 c h
22.273 76.648 m 29.398 87.301 41.477 94.273 55.273 94.273 c 57 94.273 58.648
 94.125 60.375 93.977 c 43.949 76.727 l 22.273 76.727 l h
22.273 76.648 m f
93.824 15.977 m 83.551 5.625 69.824 0 55.199 0 c 40.648 0 26.926 5.699 
16.574 15.977 c 6.227 26.324 0.602 39.977 0.602 54.602 c 0.602 69.148 6.301
 82.875 16.574 93.227 c 26.852 103.574 40.574 109.199 55.199 109.199 c 69.824
 109.199 83.477 103.5 93.824 93.227 c 104.176 82.875 109.801 69.227 109.801
 54.602 c 109.801 39.977 104.176 26.25 93.824 15.977 c 55.199 108.375 m 
25.5 108.375 1.352 84.227 1.352 54.523 c 1.352 24.824 25.5 0.676 55.199 
0.676 c 84.898 0.676 109.051 24.824 109.051 54.523 c 109.051 84.227 84.898
 108.375 55.199 108.375 c f
103.727 34.125 m 99.75 24.676 93.074 16.648 84.676 10.949 c 76.273 5.25
 66.148 1.949 55.273 1.949 c 48 1.949 41.102 3.449 34.801 6.074 c 25.352
 10.125 17.324 16.727 11.625 25.125 c 5.926 33.523 2.625 43.648 2.625 54.523
 c 2.625 61.801 4.125 68.699 6.75 75 c 10.727 84.449 17.398 92.477 25.801
 98.176 c 34.199 103.875 44.324 107.176 55.199 107.176 c 62.477 107.176 
69.375 105.676 75.676 103.051 c 85.125 99.074 93.148 92.398 98.852 84 c 
104.551 75.602 107.852 65.477 107.852 54.602 c 107.926 47.324 106.426 40.426
 103.727 34.125 c 71.176 16.801 m 78.523 19.875 84.75 25.125 89.176 31.648
 c 93.602 38.176 96.148 46.051 96.148 54.523 c 96.148 60.227 95.023 65.551
 92.926 70.5 c 89.852 77.852 84.602 84.148 78.074 88.5 c 71.551 92.926 63.676
 95.477 55.199 95.477 c 49.5 95.477 44.176 94.352 39.227 92.25 c 31.875 
89.176 25.648 83.926 21.227 77.398 c 16.801 70.875 14.25 63 14.25 54.449
 c 14.25 48.75 15.375 43.426 17.477 38.477 c 20.551 31.125 25.801 24.824
 32.324 20.477 c 38.852 16.051 46.727 13.5 55.199 13.5 c 60.898 13.648 66.301
 14.773 71.176 16.801 c f
61.574 100.801 m 60.449 100.949 60.301 101.477 60.449 102.375 c 60.602 
103.199 60.898 103.727 61.949 103.574 c 62.551 103.5 l 62.176 100.727 l 
h
61.574 100.801 m f
1 g
28.426 70.352 4.125 1.875 re f
28.426 67.801 4.125 1.875 re f
39.75 42 2.023 1.875 re f
41.773 47.176 m 27.375 47.176 l 29.398 49.051 l 39.75 49.051 l h
41.773 47.176 m f
27.375 44.551 14.477 1.875 re f
28.426 72.977 4.125 1.949 re f
35.625 42 2.102 1.875 re f
31.5 42 2.102 1.875 re f
36.676 70.352 4.125 1.875 re f
36.676 72.977 4.125 1.949 re f
27.375 62.625 14.477 1.875 re f
29.398 60.074 10.352 1.875 re f
36.676 67.801 4.125 1.875 re f
28.426 65.25 12.375 1.875 re f
35.625 54.898 4.125 1.875 re f
29.398 49.727 10.352 1.875 re f
35.625 52.352 4.125 1.875 re f
29.398 52.352 4.125 1.875 re f
29.398 57.449 10.352 1.875 re f
29.398 54.898 4.125 1.875 re f
27.375 42 2.102 1.875 re f
49.051 70.352 4.125 1.875 re f
49.051 67.801 4.125 1.875 re f
60.375 42 2.023 1.875 re f
62.477 47.176 m 48 47.176 l 50.102 49.051 l 60.375 49.051 l h
62.477 47.176 m f
48 44.551 14.477 1.875 re f
49.051 72.977 4.125 1.949 re f
56.25 42 2.102 1.875 re f
52.125 42 2.102 1.875 re f
57.301 70.352 4.125 1.875 re f
57.301 72.977 4.125 1.949 re f
48 62.625 14.477 1.875 re f
50.102 60.074 10.348 1.875 re f
57.301 67.801 4.125 1.875 re f
49.051 65.25 12.375 1.875 re f
56.25 54.898 4.125 1.875 re f
50.102 49.727 10.348 1.875 re f
56.25 52.352 4.125 1.875 re f
50.102 52.352 4.125 1.875 re f
50.102 57.449 10.348 1.875 re f
50.102 54.898 4.125 1.875 re f
48 42 2.023 1.875 re f
69.676 70.352 4.125 1.875 re f
69.676 67.801 4.125 1.875 re f
81 42 2.102 1.875 re f
83.102 47.176 m 68.625 47.176 l 70.727 49.051 l 81 49.051 l h
83.102 47.176 m f
68.625 44.551 14.477 1.875 re f
69.676 72.977 4.125 1.949 re f
76.875 42 2.023 1.875 re f
72.75 42 2.023 1.875 re f
77.926 70.352 4.125 1.875 re f
77.926 72.977 4.125 1.949 re f
68.625 62.625 14.477 1.875 re f
70.727 60.074 10.348 1.875 re f
77.926 67.801 4.125 1.875 re f
69.676 65.25 12.375 1.875 re f
76.875 54.898 4.125 1.875 re f
70.727 49.727 10.348 1.875 re f
76.875 52.352 4.125 1.875 re f
70.727 52.352 4.125 1.875 re f
70.727 57.449 10.348 1.875 re f
70.727 54.898 4.125 1.875 re f
68.625 42 2.023 1.875 re f
34.875 32.324 m 34.801 32.176 34.648 32.023 34.574 31.875 c 34.352 31.5
 34.125 31.125 33.898 30.75 c 33.75 30.449 33.523 30 33.148 29.852 c 32.551
 29.551 31.574 30.523 31.352 30.977 c 31.273 31.199 31.273 31.352 31.273
 31.574 c 31.426 34.051 33.602 36.602 34.426 38.773 c 34.426 38.852 34.5
 38.926 34.5 39 c 34.875 37.875 35.25 36.75 35.398 35.551 c 35.477 34.949
 35.551 34.352 35.477 33.824 c 35.477 33.227 35.176 32.773 34.875 32.324
 c 36.148 28.051 m 35.625 27.75 35.102 27.602 34.574 27.602 c 33.227 27.523
 32.102 28.574 31.574 29.773 c 31.574 29.852 31.5 29.926 31.5 30 c 31.949
 29.551 32.551 29.023 33.227 29.25 c 33.898 29.477 34.273 30.227 34.574 
30.824 c 35.102 31.727 35.852 33.301 37.574 33 c 38.398 30.602 37.426 28.949
 36.148 28.051 c f
55.5 32.324 m 55.352 32.176 55.273 32.023 55.199 31.875 c 54.977 31.5 54.75
 31.125 54.523 30.75 c 54.375 30.449 54.148 30 53.773 29.852 c 53.176 29.551
 52.199 30.523 51.977 30.977 c 51.898 31.199 51.898 31.352 51.898 31.574
 c 52.051 34.051 54.227 36.602 55.051 38.773 c 55.051 38.852 55.125 38.926
 55.125 39 c 55.5 37.875 55.875 36.75 56.023 35.551 c 56.102 34.949 56.176
 34.352 56.102 33.824 c 56.102 33.227 55.801 32.773 55.5 32.324 c 56.773
 28.051 m 56.25 27.75 55.727 27.602 55.199 27.602 c 53.852 27.523 52.727
 28.574 52.199 29.773 c 52.199 29.852 52.125 29.926 52.125 30 c 52.574 29.551
 53.176 29.023 53.773 29.25 c 54.449 29.477 54.824 30.227 55.125 30.824 
c 55.648 31.727 56.398 33.301 58.125 33 c 59.023 30.602 58.051 28.949 56.773
 28.051 c f
76.199 32.324 m 76.125 32.176 75.977 32.023 75.898 31.875 c 75.676 31.5
 75.449 31.125 75.227 30.75 c 75 30.449 74.852 30 74.477 29.852 c 73.875
 29.551 72.898 30.523 72.676 30.977 c 72.602 31.199 72.602 31.352 72.602
 31.574 c 72.75 34.051 74.926 36.602 75.75 38.773 c 75.75 38.852 75.824 
38.926 75.824 39 c 76.199 37.875 76.574 36.75 76.727 35.551 c 76.801 34.949
 76.875 34.352 76.801 33.824 c 76.727 33.227 76.5 32.773 76.199 32.324 c
 77.398 28.051 m 76.875 27.75 76.352 27.602 75.824 27.602 c 74.477 27.523
 73.352 28.574 72.824 29.773 c 72.824 29.852 72.75 29.926 72.75 30 c 73.199
 29.551 73.801 29.023 74.398 29.25 c 75.074 29.477 75.449 30.227 75.75 30.824
 c 76.273 31.727 77.023 33.301 78.75 33 c 79.648 30.602 78.75 28.949 77.398
 28.051 c f
30.977 15.824 m 29.324 12.977 l 29.176 12.676 28.949 12.602 28.352 12.977
 c 28.273 12.898 l 30.523 11.625 l 30.602 11.699 l 30 12.074 30 12.227 30.148
 12.523 c 31.727 15.301 l 32.324 16.352 33.074 16.273 33.898 15.898 c 34.199
 15.676 34.5 15.449 34.574 15.074 c 34.648 14.699 34.648 14.25 34.352 13.727
 c 33.148 11.625 l 32.773 10.949 32.398 10.801 31.648 11.102 c 31.574 11.023
 l 33.449 9.977 l 33.523 10.051 l 32.926 10.5 32.926 10.875 33.301 11.551
 c 34.5 13.648 l 35.023 14.625 34.875 15.523 33.676 16.273 c 32.477 16.949
 31.5 16.875 30.977 15.824 c h
30.977 15.824 m f
36.148 9.824 m 37.352 12.898 l 37.648 13.648 37.949 13.875 38.699 13.648
 c 38.773 13.727 l 36.75 14.477 l 36.676 14.398 l 37.352 14.023 37.426 13.648
 37.125 12.898 c 36 9.977 l 35.852 9.523 35.398 9.227 34.801 9.449 c 34.801
 9.375 l 36.375 8.773 l 40.801 11.477 l 39.75 8.852 l 39.449 8.102 39.074
 7.949 38.324 8.102 c 38.324 8.023 l 40.352 7.273 l 40.352 7.352 l 39.676
 7.727 39.676 8.102 39.898 8.773 c 41.477 12.75 l 41.25 12.824 l h
36.148 9.824 m f
42.824 12.148 m 43.5 11.926 43.648 11.773 43.574 11.398 c 42.523 7.273 
l 42.449 6.977 42.227 6.824 41.551 6.977 c 41.551 6.898 l 44.102 6.227 l
 44.102 6.301 l 43.426 6.523 43.273 6.75 43.426 7.051 c 44.477 11.102 l 
44.551 11.398 44.773 11.551 45.449 11.398 c 45.449 11.477 l 42.898 12.148
 l h
42.824 12.148 m f
46.125 6.75 m 45.824 6.227 45.676 6.074 45.074 6.074 c 45.074 6 l 47.625
 5.625 l 47.625 5.699 l 46.875 5.852 46.801 6.074 47.023 6.449 c 48.898 
9.898 l 48.977 9.898 l 49.727 6.449 l 49.875 5.773 49.727 5.477 48.977 5.477
 c 48.977 5.398 l 50.773 5.102 l 50.773 5.176 l 50.25 5.398 50.102 5.699
 49.875 6.602 c 48.824 11.023 l 48.523 11.102 l h
46.125 6.75 m f
51.898 10.426 m 52.574 10.352 52.727 10.199 52.727 9.898 c 52.648 5.699
 l 52.648 5.398 52.5 5.176 51.824 5.176 c 51.824 5.102 l 56.398 5.023 l 
56.477 6.75 l 56.398 6.75 l 55.949 5.625 55.574 5.102 54.602 5.176 c 53.699
 5.176 l 53.773 7.574 l 54.227 7.574 l 54.898 7.574 55.199 7.352 55.426 
6.449 c 55.5 6.449 l 55.574 8.773 l 55.5 8.773 l 55.273 7.949 54.898 7.727
 54.301 7.727 c 53.852 7.727 l 53.926 10.352 l 54.824 10.352 l 55.949 10.352
 56.324 9.824 56.773 8.625 c 56.852 8.625 l 56.852 10.5 l 52.125 10.574 
l 52.125 10.426 l h
51.898 10.426 m f
59.398 10.051 m 59.398 10.352 59.551 10.574 60.148 10.648 c 60.148 10.727
 l 57.602 10.426 l 57.602 10.352 l 58.273 10.426 58.5 10.273 58.5 9.977 
c 58.949 5.773 l 58.949 5.477 58.801 5.25 58.125 5.176 c 58.125 5.102 l 
60.602 5.398 l 62.176 5.551 62.699 6.227 62.625 6.977 c 62.551 7.648 62.023
 8.102 60.824 8.176 c 61.949 8.324 62.176 8.852 62.176 9.676 c 62.176 10.125
 l 62.25 10.801 62.324 10.949 63 11.023 c 63 11.102 l 62.699 11.102 62.477
 11.102 62.176 11.102 c 61.352 11.023 61.199 10.727 61.199 9.977 c 61.199
 9.227 l 61.199 8.398 61.051 8.176 60.148 8.102 c 59.551 8.023 l h
60.301 7.949 m 61.352 8.102 61.574 7.648 61.727 6.824 c 61.801 6.074 61.574
 5.551 60.523 5.477 c 60 5.398 l 59.699 7.875 l h
60.301 7.949 m f
64.051 9.449 m 64.125 9.449 l 64.352 10.574 64.727 11.398 65.551 11.625
 c 66.301 11.773 66.824 11.398 66.898 10.875 c 67.051 10.199 66.676 9.824
 65.773 9.301 c 65.102 8.852 64.352 8.398 64.574 7.426 c 64.801 6.449 65.699
 6 66.75 6.227 c 67.199 6.301 67.574 6.523 67.801 6.75 c 68.176 6.523 l 
68.25 6.523 l 67.875 8.25 l 67.801 8.25 l 67.648 7.125 67.273 6.523 66.602
 6.375 c 66.074 6.227 65.551 6.449 65.398 7.051 c 65.25 7.727 65.699 8.102
 66.449 8.551 c 67.125 8.926 67.801 9.375 67.574 10.426 c 67.352 11.25 66.676
 12.074 65.324 11.773 c 64.875 11.699 64.426 11.398 64.125 11.102 c 63.602
 11.398 l 63.523 11.398 l h
64.051 9.449 m f
68.176 12.301 m 68.852 12.523 69.074 12.375 69.148 12.074 c 70.5 8.102 
l 70.574 7.801 70.5 7.574 69.824 7.352 c 69.824 7.273 l 72.375 8.102 l 72.375
 8.176 l 71.699 7.949 71.477 8.102 71.398 8.398 c 70.051 12.375 l 69.977
 12.676 70.051 12.898 70.727 13.125 c 70.648 13.199 l 68.102 12.375 l h
68.176 12.301 m f
72.449 13.875 m 73.051 14.176 73.352 14.102 73.5 13.801 c 75.449 9.523 
l 75.148 9.375 l 74.625 9.148 73.949 9.375 73.051 10.125 c 72.977 10.051
 l 73.727 8.551 l 78.074 10.574 l 77.398 12.148 l 77.324 12.148 l 77.324
 11.023 77.102 10.352 76.574 10.051 c 76.273 9.898 l 74.324 14.176 l 74.176
 14.477 74.324 14.699 74.926 15 c 74.852 15.074 l 72.375 13.949 l h
72.449 13.875 m f
79.875 15.523 m 78.301 14.551 l 77.699 15 l 76.875 15.602 76.875 15.898
 77.398 16.352 c 77.324 16.426 l 75.75 15.449 l 75.824 15.375 l 76.352 15.523
 76.727 15.449 77.477 14.852 c 81.074 12.148 l 81.375 12.301 l 80.398 17.25
 l 80.324 17.852 80.324 18 80.773 18.375 c 80.699 18.449 l 78.523 17.102
 l 78.602 17.023 l 79.273 17.398 79.426 17.324 79.5 16.801 c h
79.875 15.375 m 80.398 12.977 l 78.449 14.477 l h
81.449 11.023 m 81.375 10.648 81.301 10.426 81.449 10.273 c 81.523 10.125
 81.75 10.051 81.898 10.199 c 82.125 10.352 82.125 10.574 81.977 11.023 
c 81.75 12.074 l 81.676 12 l h
81.449 11.023 m f
83.551 20.477 m 84.074 20.926 84.301 20.926 84.523 20.699 c 87.449 17.625
 l 87.676 17.398 87.676 17.176 87.148 16.648 c 87.227 16.574 l 89.023 18.301
 l 90.449 19.648 90.375 21.148 89.398 22.273 c 88.426 23.324 86.852 23.773
 85.352 22.352 c 83.477 20.625 l h
85.199 22.051 m 86.324 23.102 87.148 23.023 88.5 21.602 c 89.926 20.102
 89.773 19.273 88.727 18.375 c 88.352 18 l 84.824 21.75 l h
85.199 22.051 m f
88.051 24.898 m 88.5 25.426 88.727 25.426 88.949 25.199 c 92.25 22.574 
l 92.477 22.352 92.551 22.125 92.102 21.602 c 92.176 21.523 l 95.023 25.051
 l 93.676 26.176 l 93.602 26.102 l 94.199 25.051 94.352 24.449 93.75 23.699
 c 93.148 22.949 l 91.273 24.449 l 91.574 24.75 l 92.023 25.273 92.398 25.352
 93.148 25.051 c 93.227 25.125 l 91.5 26.625 l 91.426 26.551 l 91.949 25.875
 91.875 25.426 91.5 24.977 c 91.273 24.676 l 89.25 26.324 l 89.852 27.074
 l 90.523 27.898 91.199 27.898 92.477 27.523 c 92.551 27.602 l 91.051 28.727
 l 88.051 25.051 l h
88.051 24.898 m f
93.898 28.051 m 95.398 27.148 97.051 27.75 97.801 29.023 c 98.102 29.551
 98.25 30 98.25 30.375 c 98.773 30.523 l 98.852 30.602 l 97.273 31.574 l
 97.199 31.5 l 97.875 30.602 98.023 29.773 97.648 29.102 c 97.199 28.352
 96.074 27.977 94.426 29.023 c 92.773 30.074 92.551 31.199 93 31.949 c 93.227
 32.324 93.523 32.551 93.824 32.699 c 95.102 31.949 l 95.398 31.801 95.477
 31.5 95.102 30.898 c 95.176 30.824 l 96.449 32.852 l 96.375 32.926 l 96.074
 32.477 95.926 32.477 95.625 32.699 c 94.426 33.449 l 93.898 33.148 93.301
 32.625 93 32.023 c 92.176 30.676 92.25 29.023 93.898 28.051 c h
93.898 28.051 m f
94.727 34.574 m 95.023 35.176 95.25 35.25 95.551 35.176 c 99.449 33.449
 l 99.75 33.301 99.824 33.074 99.602 32.477 c 99.676 32.477 l 100.727 34.801
 l 100.648 34.875 l 100.352 34.199 100.125 34.199 99.824 34.352 c 95.551
 36.227 l 95.773 36.75 l 96.227 37.727 96.75 38.023 98.176 37.949 c 98.176
 38.023 l 96.449 38.699 l 94.648 34.574 l h
94.727 34.574 m f
96.75 39.449 m 96.977 40.125 97.199 40.199 97.5 40.125 c 101.551 38.773
 l 101.852 38.699 101.926 38.477 101.773 37.801 c 101.852 37.801 l 102.676
 40.352 l 102.602 40.352 l 102.375 39.676 102.148 39.602 101.852 39.676 
c 97.801 41.023 l 97.5 41.102 97.352 41.324 97.574 42 c 97.5 42 l 96.676
 39.449 l h
96.75 39.449 m f
100.273 45.676 m 100.273 45.75 l 99.301 46.352 98.699 47.023 98.773 47.852
 c 98.926 48.602 99.449 48.898 99.977 48.824 c 100.648 48.75 100.875 48.227
 101.023 47.176 c 101.176 46.352 101.324 45.523 102.301 45.375 c 103.352
 45.227 104.102 45.898 104.25 46.949 c 104.324 47.398 104.25 47.852 104.176
 48.148 c 104.551 48.375 l 104.551 48.449 l 102.824 48.75 l 102.824 48.676
 l 103.801 48.074 104.25 47.477 104.102 46.875 c 104.023 46.352 103.574 
45.898 102.977 45.977 c 102.301 46.051 102.148 46.648 102 47.551 c 101.852
 48.301 101.699 49.125 100.727 49.273 c 99.898 49.426 98.852 49.051 98.625
 47.699 c 98.551 47.25 98.625 46.727 98.773 46.352 c 98.324 45.977 l 98.324
 45.898 l h
100.273 45.676 m f
99.301 51.375 m 99.375 52.051 99.523 52.273 99.824 52.273 c 104.477 52.125
 l 104.477 51.824 l 104.477 51.227 103.875 50.773 102.824 50.324 c 102.824
 50.25 l 104.551 50.25 l 104.699 55.051 l 102.977 55.199 l 102.977 55.051
 l 103.949 54.523 104.477 54 104.477 53.398 c 104.477 53.102 l 99.824 53.324
 l 99.523 53.324 99.375 53.551 99.375 54.301 c 99.301 54.301 l 99.227 51.523
 l 99.301 51.523 l h
99.301 51.375 m f
100.875 56.926 m 104.102 57.227 l 104.398 57.227 104.625 57.074 104.699
 56.398 c 104.773 56.398 l 104.551 58.949 l 104.477 58.949 l 104.477 58.273
 104.324 58.125 104.023 58.125 c 100.875 57.824 l 99.676 57.676 99.227 58.352
 99.148 59.25 c 99.074 59.625 99.227 60 99.375 60.301 c 99.602 60.602 99.977
 60.824 100.574 60.824 c 102.977 61.051 l 103.727 61.125 104.102 60.898 
104.25 60.148 c 104.324 60.148 l 104.102 62.324 l 104.023 62.324 l 103.949
 61.574 103.648 61.352 102.898 61.273 c 100.426 61.051 l 99.301 60.977 98.699
 60.227 98.773 58.875 c 99.074 57.523 99.75 56.852 100.875 56.926 c h
100.875 56.926 m f
98.773 62.477 m 98.625 63.148 98.773 63.375 99.074 63.449 c 103.199 64.5
 l 103.5 64.574 103.727 64.426 103.875 63.824 c 103.949 63.824 l 103.352
 66.227 l 102.898 68.102 101.551 68.773 100.125 68.477 c 98.699 68.102 97.574
 66.977 98.102 65.023 c 98.699 62.551 l h
98.25 64.727 m 97.875 66.227 98.324 66.898 100.273 67.352 c 102.227 67.875
 102.898 67.273 103.199 66 c 103.352 65.477 l 98.324 64.199 l h
98.25 64.727 m f
97.125 68.551 m 96.898 69.227 96.977 69.449 97.273 69.523 c 101.25 70.949
 l 101.551 71.023 101.773 70.949 102 70.273 c 102.074 70.273 l 101.176 72.75
 l 101.102 72.75 l 101.324 72.074 101.176 71.852 100.875 71.773 c 96.898
 70.352 l 96.602 70.199 96.375 70.352 96.148 71.023 c 96.074 71.023 l 96.977
 68.551 l h
97.125 68.551 m f
94.648 74.699 m 94.352 75.301 94.426 75.523 94.648 75.676 c 98.324 77.852
 l 98.625 78 98.852 77.926 99.227 77.398 c 99.301 77.477 l 98.023 79.574
 l 97.051 81.227 95.551 81.523 94.273 80.773 c 93 80.023 92.25 78.602 93.301
 76.875 c 94.574 74.699 l h
93.523 76.648 m 92.699 78 93 78.75 94.727 79.801 c 96.449 80.852 97.273
 80.477 97.949 79.352 c 98.25 78.898 l 93.824 76.273 l h
93.523 76.648 m f
91.426 80.023 m 91.051 80.551 91.051 80.773 91.273 81 c 94.574 83.625 l
 94.801 83.852 95.102 83.773 95.477 83.25 c 95.551 83.324 l 92.699 86.852
 l 91.273 85.801 l 91.352 85.727 l 92.477 86.023 93.148 86.102 93.676 85.352
 c 94.273 84.602 l 92.398 83.102 l 92.102 83.398 l 91.727 83.926 91.648 
84.301 92.176 85.051 c 92.102 85.125 l 90.301 83.699 l 90.375 83.625 l 91.125
 84 91.574 83.852 91.949 83.324 c 92.25 83.023 l 90.227 81.375 l 89.625 
82.125 l 88.949 82.949 89.102 83.625 89.773 84.75 c 89.699 84.824 l 88.273
 83.625 l 91.199 79.875 l h
91.426 80.023 m f
87.824 84.449 m 87.375 84.977 87.375 85.199 87.602 85.426 c 90.523 88.426
 l 90.75 88.648 90.977 88.648 91.5 88.199 c 91.574 88.273 l 89.773 90.074
 l 89.699 90 l 90.227 89.477 90.148 89.324 89.926 89.102 c 86.625 85.727
 l 86.176 86.176 l 85.426 86.926 85.352 87.523 85.875 88.801 c 85.801 88.875
 l 84.602 87.523 l 87.824 84.375 l h
87.824 84.449 m f
84.074 88.051 m 83.551 88.5 83.551 88.727 83.699 88.949 c 86.324 92.324
 l 86.551 92.551 86.773 92.625 87.301 92.25 c 87.375 92.324 l 85.352 93.898
 l 85.273 93.824 l 85.801 93.375 85.801 93.148 85.574 92.926 c 82.727 89.176
 l 82.273 89.551 l 81.375 90.227 81.301 90.75 81.676 92.176 c 81.602 92.25
 l 80.551 90.75 l h
84.074 88.051 m f
78.148 94.574 m 79.727 93.602 l 79.574 92.852 l 79.426 91.875 79.125 91.727
 78.523 91.949 c 78.449 91.875 l 80.023 90.977 l 80.102 91.051 l 79.727 
91.426 79.648 91.801 79.801 92.773 c 80.477 97.273 l 80.176 97.426 l 76.273
 94.199 l 75.824 93.824 75.676 93.75 75.074 94.051 c 75 93.977 l 77.176 
92.699 l 77.25 92.773 l 76.648 93.148 76.574 93.375 76.949 93.676 c h
78.301 94.727 m 80.176 96.301 l 79.801 93.824 l h
78.301 94.727 m f
70.5 96.523 m 70.426 96.227 70.199 96.148 69.602 96.301 c 69.602 96.227
 l 72.074 95.398 l 72.148 95.477 l 71.477 95.699 71.398 95.926 71.477 96.227
 c 72.824 100.199 l 72.898 100.5 73.125 100.574 73.801 100.426 c 73.801 
100.5 l 71.477 101.324 l 69.977 101.852 69.148 101.477 68.926 100.801 c 
68.699 100.199 69 99.523 70.051 98.926 c 68.926 99.301 68.551 98.852 68.176
 98.176 c 67.949 97.801 l 67.648 97.199 67.5 97.125 66.824 97.352 c 66.824
 97.273 l 67.051 97.125 67.352 97.051 67.574 96.898 c 68.398 96.602 68.625
 96.824 68.926 97.5 c 69.227 98.176 l 69.602 98.926 69.824 99 70.648 98.699
 c 71.25 98.551 l h
70.574 98.852 m 69.602 99.227 69.523 99.676 69.824 100.5 c 70.051 101.176
 70.5 101.551 71.551 101.176 c 72.074 101.023 l 71.25 98.625 l h
70.574 98.852 m f
66.449 97.352 m 65.773 97.5 65.625 97.727 65.699 98.023 c 66.523 102.148
 l 66.602 102.449 66.75 102.602 67.426 102.449 c 67.426 102.523 l 63 103.426
 l 62.625 101.699 l 62.699 101.625 l 63.375 102.602 63.824 103.051 64.727
 102.898 c 65.625 102.75 l 65.176 100.426 l 64.727 100.5 l 64.125 100.648
 63.824 100.949 63.75 101.773 c 63.676 101.773 l 63.227 99.523 l 63.301 
99.523 l 63.676 100.273 64.051 100.5 64.727 100.352 c 65.176 100.273 l 64.648
 97.727 l 63.75 97.875 l 62.699 98.102 62.324 98.699 62.176 99.977 c 62.023
 99.977 l 61.727 98.176 l 66.375 97.199 l h
66.449 97.352 m f
60.824 98.398 m 60.148 98.477 60 98.625 60 99 c 60.301 103.199 l 60.301
 103.5 60.523 103.648 61.199 103.648 c 61.199 103.727 l 58.875 103.875 l
 57.148 104.023 56.551 103.426 56.551 102.523 c 56.477 101.699 57 100.949
 58.727 100.801 c 59.25 100.801 l 59.102 99 l 59.102 98.699 58.875 98.551
 58.199 98.551 c 58.199 98.477 l 60.898 98.25 l h
58.727 101.023 m 57.676 101.102 57.449 101.625 57.523 102.523 c 57.602 
103.273 57.898 103.875 58.875 103.801 c 59.398 103.801 l 59.176 101.023 
l h
58.727 101.023 m f
54.602 100.199 m 54.449 103.426 l 54.449 103.727 54.602 103.949 55.273 
104.023 c 55.273 104.102 l 52.727 103.949 l 52.727 103.875 l 53.398 103.875
 53.551 103.727 53.551 103.426 c 53.773 100.273 l 53.852 99.074 53.176 98.699
 52.273 98.625 c 51.898 98.625 51.523 98.699 51.227 98.926 c 50.926 99.227
 50.773 99.602 50.699 100.199 c 50.551 102.602 l 50.477 103.352 50.773 103.727
 51.523 103.875 c 51.523 103.949 l 49.352 103.801 l 49.352 103.727 l 50.102
 103.648 50.324 103.352 50.324 102.602 c 50.477 100.125 l 50.551 99 51.227
 98.324 52.574 98.398 c 53.926 98.477 54.676 99.074 54.602 100.199 c h
54.602 100.199 m f
49.051 98.324 m 48.375 98.25 48.148 98.324 48.148 98.625 c 47.324 102.75
 l 47.25 103.051 47.398 103.273 48.074 103.426 c 48.074 103.5 l 45.676 103.051
 l 44.102 102.75 43.727 102 43.875 101.324 c 43.949 100.727 44.551 100.273
 45.676 100.426 c 44.477 100.125 44.023 99.523 44.176 98.773 c 44.324 98.023
 45 97.352 46.727 97.727 c 49.199 98.176 l h
46.051 100.648 m 45.227 100.5 44.852 100.875 44.699 101.551 c 44.551 102.227
 44.699 102.75 45.676 102.898 c 46.352 103.051 l 46.801 100.727 l h
46.5 97.875 m 45.523 97.648 45.148 98.102 45 99 c 44.852 99.676 45.074 
100.273 46.051 100.5 c 46.727 100.648 l 47.25 98.023 l h
46.5 97.875 m f
43.5 97.199 m 42.824 96.977 42.602 97.125 42.523 97.426 c 41.176 101.398
 l 41.102 101.699 41.176 101.926 41.852 102.148 c 41.852 102.227 l 39.523
 101.477 l 37.949 100.949 37.727 100.199 37.949 99.602 c 38.102 99.074 38.699
 98.625 39.824 98.926 c 38.699 98.477 38.324 97.801 38.551 97.125 c 38.773
 96.375 39.602 95.852 41.176 96.375 c 43.574 97.199 l h
40.273 99.074 m 39.449 98.773 39 99.148 38.773 99.824 c 38.551 100.426 
38.625 101.023 39.523 101.324 c 40.125 101.551 l 40.875 99.301 l h
41.102 96.449 m 40.125 96.148 39.75 96.449 39.449 97.352 c 39.227 98.023
 39.375 98.699 40.273 99 c 40.949 99.227 l 41.773 96.75 l h
41.102 96.449 m f
38.25 95.324 m 37.648 95.023 37.426 95.176 37.273 95.398 c 35.477 99.227
 l 35.324 99.523 35.398 99.75 36 100.051 c 35.926 100.125 l 33.602 99 l 
33.602 98.926 l 34.273 99.227 34.426 99.074 34.574 98.773 c 36.602 94.5 
l 36.074 94.199 l 35.102 93.75 34.5 93.898 33.449 94.875 c 33.375 94.801
 l 34.273 93.148 l 38.324 95.102 l h
38.25 95.324 m f
33.449 93 m 32.852 92.625 32.625 92.699 32.398 93 c 30.227 96.602 l 30.074
 96.898 30.148 97.125 30.676 97.5 c 30.602 97.574 l 28.352 96.227 l 28.426
 96.148 l 29.023 96.523 29.25 96.449 29.477 96.148 c 31.648 92.551 l 31.801
 92.25 31.727 92.023 31.199 91.648 c 31.273 91.574 l 33.523 92.926 l h
33.449 93 m f
28.875 93.148 m 27.824 94.5 26.102 94.727 24.824 93.75 c 24.375 93.375 
24.074 93 23.926 92.625 c 23.398 92.699 l 23.324 92.625 l 24.449 91.125 
l 24.523 91.199 l 24.227 92.324 24.301 93.148 24.977 93.676 c 25.727 94.273
 26.852 94.051 27.977 92.551 c 29.102 91.125 28.727 89.926 27.977 89.324
 c 27.227 88.801 26.398 88.875 25.727 89.25 c 25.648 89.102 l 26.398 88.727
 27.375 88.5 28.426 89.25 c 29.699 90.301 29.926 91.801 28.875 93.148 c 
h
28.875 93.148 m f
22.5 87.074 m 23.852 88.352 l 24.523 88.051 l 25.426 87.602 25.5 87.375
 25.125 86.773 c 25.199 86.699 l 26.477 87.977 l 26.398 88.051 l 25.949 
87.75 25.5 87.824 24.676 88.199 c 20.551 90 l 20.324 89.773 l 22.426 85.125
 l 22.648 84.602 22.648 84.449 22.273 83.926 c 22.352 83.852 l 24.227 85.648
 l 24.148 85.727 l 23.625 85.199 23.398 85.273 23.176 85.727 c h
22.426 87.227 m 21.375 89.477 l 23.625 88.426 l h
22.426 87.227 m f
20.102 81.301 m 19.727 80.773 19.426 80.699 19.199 80.926 c 15.676 83.324
 l 15.449 83.477 15.375 83.773 15.75 84.301 c 15.676 84.375 l 14.25 82.352
 l 13.125 80.773 13.5 79.273 14.773 78.449 c 15.977 77.625 17.625 77.551
 18.75 79.199 c 20.176 81.301 l h
18.75 79.426 m 17.852 78.148 17.102 78.074 15.449 79.199 c 13.801 80.324
 13.727 81.227 14.477 82.352 c 14.773 82.801 l 19.051 79.875 l h
18.75 79.426 m f
16.648 75.977 m 16.273 75.375 16.051 75.301 15.824 75.449 c 12.074 77.398
 l 11.773 77.551 11.699 77.773 12 78.375 c 11.926 78.449 l 10.727 76.125
 l 10.801 76.051 l 11.176 76.648 11.398 76.727 11.699 76.574 c 15.449 74.625
 l 15.75 74.477 15.824 74.25 15.523 73.574 c 15.602 73.5 l 16.801 75.824
 l h
16.648 75.977 m f
12.148 70.426 m 12.074 70.352 l 12.898 69.602 13.426 68.852 13.199 68.023
 c 12.977 67.273 12.375 67.125 11.926 67.273 c 11.25 67.5 11.176 68.023 
11.102 69.074 c 11.102 69.898 11.102 70.727 10.125 71.102 c 9.148 71.398
 8.25 70.875 7.949 69.898 c 7.801 69.449 7.801 69 7.801 68.699 c 7.426 68.551
 l 7.426 68.477 l 9.074 67.949 l 9.074 68.023 l 8.25 68.773 7.875 69.375
 8.102 69.977 c 8.25 70.5 8.773 70.875 9.301 70.648 c 9.977 70.426 10.051
 69.898 10.051 68.926 c 10.051 68.176 10.051 67.273 11.023 66.977 c 11.852
 66.75 12.898 66.898 13.352 68.176 c 13.5 68.625 13.5 69.148 13.426 69.523
 c 13.949 69.824 l 13.949 69.898 l h
12.148 70.426 m f
9.824 62.852 m 10.199 64.648 l 10.875 64.801 l 11.852 64.949 12.074 64.801
 12.074 64.051 c 12.148 64.051 l 12.523 65.852 l 12.449 65.852 l 12.227 
65.398 11.852 65.176 10.949 64.949 c 6.523 64.125 l 6.449 63.824 l 10.801
 61.199 l 11.324 60.898 11.398 60.75 11.398 60.148 c 11.477 60.148 l 12 
62.699 l 11.926 62.699 l 11.773 61.949 11.551 61.875 11.176 62.102 c h
9.676 62.926 m 7.574 64.125 l 10.051 64.574 l h
9.676 62.926 m f
6.75 58.875 m 9.977 58.727 l 10.727 58.648 11.023 58.5 11.102 57.676 c 
11.176 57.676 l 11.324 59.852 l 11.25 59.852 l 11.102 59.102 10.727 58.949
 9.977 58.949 c 6.824 59.102 l 6.301 59.102 5.926 59.398 5.926 60.074 c 
5.852 60.074 l 5.773 58.426 l 9.75 55.125 l 6.898 55.273 l 6.148 55.273 
5.773 55.574 5.773 56.398 c 5.699 56.398 l 5.625 54.227 l 5.699 54.227 l
 5.852 54.977 6.227 55.125 6.977 55.051 c 11.25 54.824 l 11.25 55.051 l 
h
6.75 58.875 m f
11.176 50.25 m 11.176 49.5 10.875 49.273 10.125 49.125 c 6.977 48.523 l
 6.523 48.449 6.074 48.676 5.926 49.273 c 5.852 49.273 l 6.227 47.324 l 
10.648 46.426 l 6.75 44.102 l 7.051 42.301 l 7.125 42.301 l 7.051 42.977
 7.199 43.199 7.5 43.199 c 11.699 43.949 l 12 44.023 12.227 43.875 12.375
 43.199 c 12.449 43.199 l 12 45.676 l 11.926 45.676 l 12 45 11.926 44.852
 11.551 44.773 c 7.273 44.023 l 11.773 46.801 l 11.773 46.949 l 6.523 48.074
 l 6.523 48.148 l 10.125 48.824 l 10.875 48.977 11.25 48.824 11.477 48.074
 c 11.551 48.074 l 11.176 50.176 l h
11.176 50.25 m f
11.773 39 m 11.176 40.727 l 11.699 41.176 l 12.449 41.773 12.75 41.773 
13.125 41.102 c 13.199 41.176 l 12.602 42.898 l 12.523 42.898 l 12.523 42.375
 12.375 42 11.699 41.398 c 8.25 38.477 l 8.324 38.176 l 13.426 38.102 l 
14.023 38.102 14.176 38.023 14.398 37.5 c 14.477 37.5 l 13.648 39.898 l 
13.574 39.898 l 13.801 39.148 13.648 39 13.199 39 c h
11.625 39 m 9.148 39 l 11.023 40.574 l h
11.625 39 m f
14.926 35.324 m 15.227 35.477 15.449 35.398 15.75 34.801 c 15.824 34.875
 l 14.699 37.199 l 14.625 37.125 l 14.926 36.523 14.852 36.301 14.551 36.148
 c 10.801 34.273 l 10.5 34.125 10.273 34.199 9.977 34.801 c 9.898 34.727
 l 11.023 32.551 l 11.773 31.125 12.523 30.824 13.199 31.125 c 13.801 31.426
 14.102 32.102 13.727 33.227 c 14.25 32.176 14.852 32.176 15.602 32.477 
c 16.051 32.625 l 16.727 32.852 16.875 32.773 17.176 32.176 c 17.25 32.25
 l 17.176 32.551 17.102 32.773 16.949 33 c 16.574 33.75 16.273 33.75 15.602
 33.523 c 14.926 33.301 l 14.176 33 13.875 33.148 13.5 33.977 c 13.199 34.5
 l h
13.199 33.75 m 13.648 32.773 13.352 32.398 12.602 32.023 c 11.926 31.727
 11.398 31.801 10.875 32.699 c 10.648 33.227 l 12.898 34.352 l h
13.199 33.75 m f
17.324 31.875 m 17.699 31.273 17.625 31.051 17.324 30.898 c 13.801 28.648
 l 13.5 28.5 13.273 28.5 12.898 29.102 c 12.824 29.023 l 14.25 26.773 l 
14.324 26.852 l 13.949 27.449 14.023 27.676 14.25 27.824 c 17.773 30.074
 l 18.074 30.227 18.301 30.227 18.676 29.625 c 18.75 29.699 l 17.324 31.949
 l h
17.324 31.875 m f
16.426 25.199 m 18.977 27.301 l 19.574 27.75 19.949 27.824 20.551 27.301
 c 20.625 27.375 l 19.273 29.023 l 19.199 28.949 l 19.574 28.273 19.5 27.898
 18.898 27.449 c 16.426 25.426 l 16.051 25.125 15.602 25.125 15.148 25.574
 c 15.074 25.5 l 16.125 24.227 l 21.301 24.449 l 19.125 22.648 l 18.523 
22.199 18.074 22.199 17.551 22.727 c 17.477 22.648 l 18.824 21 l 18.898 
21.074 l 18.523 21.75 18.676 22.051 19.273 22.574 c 22.574 25.273 l 22.426
 25.5 l h
16.426 25.199 m f
21.602 21.898 m 20.398 20.625 20.551 18.977 21.602 18 c 22.648 17.023 24.301
 17.023 25.5 18.301 c 26.625 19.574 26.551 21.227 25.5 22.199 c 24.449 23.176
 22.801 23.176 21.602 21.898 c h
24.75 19.051 m 23.398 17.551 22.426 17.477 21.676 18.148 c 20.926 18.824
 21 19.727 22.352 21.227 c 23.699 22.727 24.676 22.727 25.426 22.125 c 26.102
 21.449 26.102 20.551 24.75 19.051 c h
24.75 19.051 m f
  Q
Q
Q Q
showpage
%%Trailer
end
%%EOF
