\BOOKMARK [0][-]{section*.1}{\376\377\000I\000n\000d\000i\000c\000e}{}% 1
\BOOKMARK [0][-]{chapter*.2}{\376\377\000I\000n\000t\000r\000o\000d\000u\000z\000i\000o\000n\000e}{}% 2
\BOOKMARK [0][-]{chapter.1}{\376\377\000T\000e\000s\000t}{}% 3
\BOOKMARK [0][-]{chapter.2}{\376\377\000S\000e\000c\000o\000n\000d\000o\000\040\000t\000e\000s\000t}{}% 4
\BOOKMARK [0][-]{appendix.Alph1}{\376\377\000A\000l\000l\000e\000g\000a\000t\000i}{}% 5
