\babel@toc {italian}{}\relax 
\babel@toc {italian}{}\relax 
\contentsline {chapter}{Indice}{i}{section*.1}%
\contentsline {chapter}{Introduzione}{ii}{chapter*.2}%
\contentsline {chapter}{\chapternumberline {1}Test}{1}{chapter.1}%
\contentsline {chapter}{\chapternumberline {2}Secondo test}{6}{chapter.2}%
\contentsline {appendix}{\chapternumberline {A}Allegati}{10}{appendix.Alph1}%
