\relax 
\providecommand\hyper@newdestlabel[2]{}
\providecommand*{\memsetcounter}[2]{}
\providecommand\babel@aux[2]{}
\@nameuse{bbl@beforestart}
\providecommand\HyperFirstAtBeginDocument{\AtBeginDocument}
\HyperFirstAtBeginDocument{\ifx\hyper@anchor\@undefined
\global\let\oldcontentsline\contentsline
\gdef\contentsline#1#2#3#4{\oldcontentsline{#1}{#2}{#3}}
\global\let\oldnewlabel\newlabel
\gdef\newlabel#1#2{\newlabelxx{#1}#2}
\gdef\newlabelxx#1#2#3#4#5#6{\oldnewlabel{#1}{{#2}{#3}}}
\AtEndDocument{\ifx\hyper@anchor\@undefined
\let\contentsline\oldcontentsline
\let\newlabel\oldnewlabel
\fi}
\fi}
\global\let\hyper@last\relax 
\gdef\HyperFirstAtBeginDocument#1{#1}
\providecommand*\HyPL@Entry[1]{}
\HyPL@Entry{0<</S/D>>}
\@writefile{toc}{\changetocdepth  {2}}
\babel@aux{italian}{}
\babel@aux{italian}{}
\@writefile{toc}{\contentsline {section}{\numberline {1.1}Prospetto dell'UdA}{2}{section.1.1}\protected@file@percent }
\@writefile{toc}{\contentsline {section}{\numberline {1.2}Titolo, discliplina di riferimento, contenuto, classe e istituto scolastico}{3}{section.1.2}\protected@file@percent }
\@writefile{toc}{\contentsline {section}{\numberline {1.3}Traguardi di sviluppo di competenze}{3}{section.1.3}\protected@file@percent }
\@writefile{toc}{\contentsline {subsection}{\numberline {1.3.1}Area delle competenze matematiche}{3}{subsection.1.3.1}\protected@file@percent }
\@writefile{toc}{\contentsline {subsection}{\numberline {1.3.2}Area delle competenze di cittadinanza}{3}{subsection.1.3.2}\protected@file@percent }
\@writefile{toc}{\contentsline {subsection}{\numberline {1.3.3}Area delle competenze digitali}{3}{subsection.1.3.3}\protected@file@percent }
\@writefile{toc}{\contentsline {section}{\numberline {1.4}Prerequisiti}{4}{section.1.4}\protected@file@percent }
\@writefile{toc}{\contentsline {section}{\numberline {1.5}Obiettivi}{4}{section.1.5}\protected@file@percent }
\@writefile{toc}{\contentsline {subsection}{\numberline {1.5.1}Livello elementare}{4}{subsection.1.5.1}\protected@file@percent }
\@writefile{toc}{\contentsline {subsection}{\numberline {1.5.2}Livello intermedio/superiore}{4}{subsection.1.5.2}\protected@file@percent }
\@writefile{toc}{\contentsline {section}{\numberline {1.6}Tecniche di insegnamento}{4}{section.1.6}\protected@file@percent }
\@writefile{toc}{\contentsline {section}{\numberline {1.7}Materiali didattici, risorse, spazi e tempi}{4}{section.1.7}\protected@file@percent }
\@writefile{toc}{\contentsline {subsection}{\numberline {1.7.1}Materiali didattici e risorse}{4}{subsection.1.7.1}\protected@file@percent }
\@writefile{toc}{\contentsline {subsection}{\numberline {1.7.2}Spazi e tempi}{5}{subsection.1.7.2}\protected@file@percent }
\@writefile{toc}{\contentsline {section}{\numberline {1.8}Percorso didattico}{5}{section.1.8}\protected@file@percent }
\@writefile{toc}{\contentsline {subsection}{\numberline {1.8.1}Lezione 1}{5}{subsection.1.8.1}\protected@file@percent }
\@writefile{toc}{\contentsline {subsection}{\numberline {1.8.2}Lezione 2}{5}{subsection.1.8.2}\protected@file@percent }
\@writefile{toc}{\contentsline {subsection}{\numberline {1.8.3}Lezione 3}{5}{subsection.1.8.3}\protected@file@percent }
\@writefile{toc}{\contentsline {subsection}{\numberline {1.8.4}Lezione 4}{6}{subsection.1.8.4}\protected@file@percent }
\@writefile{toc}{\contentsline {subsection}{\numberline {1.8.5}Lezione 5}{6}{subsection.1.8.5}\protected@file@percent }
\@writefile{toc}{\contentsline {subsection}{\numberline {1.8.6}Lezione 6}{7}{subsection.1.8.6}\protected@file@percent }
\@writefile{toc}{\contentsline {section}{\numberline {1.9}Valutazione formativa}{7}{section.1.9}\protected@file@percent }
\@writefile{toc}{\contentsline {section}{\numberline {1.10}Valutazione finale}{7}{section.1.10}\protected@file@percent }
\@writefile{toc}{\contentsline {section}{\numberline {1.11}Attività di recupero}{7}{section.1.11}\protected@file@percent }
\@writefile{toc}{\contentsline {section}{\numberline {1.12}Valutazione finale}{7}{section.1.12}\protected@file@percent }
\memsetcounter{lastsheet}{7}
\memsetcounter{lastpage}{7}
\gdef \@abspage@last{7}
