\relax 
\providecommand\hyper@newdestlabel[2]{}
\providecommand\HyperFirstAtBeginDocument{\AtBeginDocument}
\HyperFirstAtBeginDocument{\ifx\hyper@anchor\@undefined
\global\let\oldcontentsline\contentsline
\gdef\contentsline#1#2#3#4{\oldcontentsline{#1}{#2}{#3}}
\global\let\oldnewlabel\newlabel
\gdef\newlabel#1#2{\newlabelxx{#1}#2}
\gdef\newlabelxx#1#2#3#4#5#6{\oldnewlabel{#1}{{#2}{#3}}}
\AtEndDocument{\ifx\hyper@anchor\@undefined
\let\contentsline\oldcontentsline
\let\newlabel\oldnewlabel
\fi}
\fi}
\global\let\hyper@last\relax 
\gdef\HyperFirstAtBeginDocument#1{#1}
\providecommand\HyField@AuxAddToFields[1]{}
\providecommand\HyField@AuxAddToCoFields[2]{}
\providecommand\babel@aux[2]{}
\@nameuse{bbl@beforestart}
\pgfsyspdfmark {pgfid1}{0}{16782118}
\babel@aux{italian}{}
\babel@aux{italian}{}
\@writefile{nav}{\headcommand {\slideentry {0}{0}{1}{1/1}{}{0}}}
\@writefile{nav}{\headcommand {\beamer@framepages {1}{1}}}
\@writefile{nav}{\headcommand {\slideentry {0}{0}{2}{2/2}{}{0}}}
\@writefile{nav}{\headcommand {\beamer@framepages {2}{2}}}
\@writefile{toc}{\beamer@sectionintoc {1}{Introduzione}{3}{0}{1}}
\@writefile{nav}{\headcommand {\beamer@sectionpages {1}{2}}}
\@writefile{nav}{\headcommand {\beamer@subsectionpages {1}{2}}}
\@writefile{nav}{\headcommand {\sectionentry {1}{Introduzione}{3}{Introduzione}{0}}}
\@writefile{nav}{\headcommand {\slideentry {1}{0}{1}{3/6}{}{0}}}
\@writefile{nav}{\headcommand {\beamer@framepages {3}{6}}}
\@writefile{toc}{\beamer@sectionintoc {2}{Lingue e linguaggi}{7}{0}{2}}
\@writefile{nav}{\headcommand {\beamer@sectionpages {3}{6}}}
\@writefile{nav}{\headcommand {\beamer@subsectionpages {3}{6}}}
\@writefile{nav}{\headcommand {\sectionentry {2}{Lingue e linguaggi}{7}{Lingue e linguaggi}{0}}}
\@writefile{nav}{\headcommand {\slideentry {2}{0}{1}{7/10}{}{0}}}
\@writefile{nav}{\headcommand {\beamer@framepages {7}{10}}}
\@writefile{toc}{\beamer@sectionintoc {3}{Contenuti}{11}{0}{3}}
\@writefile{nav}{\headcommand {\beamer@sectionpages {7}{10}}}
\@writefile{nav}{\headcommand {\beamer@subsectionpages {7}{10}}}
\@writefile{nav}{\headcommand {\sectionentry {3}{Contenuti}{11}{Contenuti}{0}}}
\@writefile{toc}{\beamer@subsectionintoc {3}{1}{La tematica portante}{11}{0}{3}}
\@writefile{nav}{\headcommand {\beamer@subsectionpages {11}{10}}}
\@writefile{nav}{\headcommand {\beamer@subsectionentry {0}{3}{1}{11}{La tematica portante}}}
\@writefile{nav}{\headcommand {\slideentry {3}{1}{1}{11/16}{La tematica portante}{0}}}
\@writefile{nav}{\headcommand {\beamer@framepages {11}{16}}}
\@writefile{toc}{\beamer@subsectionintoc {3}{2}{Esempio di attività didattica}{17}{0}{3}}
\@writefile{nav}{\headcommand {\beamer@subsectionpages {11}{16}}}
\@writefile{nav}{\headcommand {\beamer@subsectionentry {0}{3}{2}{17}{Esempio di attività didattica}}}
\@writefile{nav}{\headcommand {\slideentry {3}{2}{1}{17/21}{Esempio di attività didattica}{0}}}
\@writefile{nav}{\headcommand {\beamer@framepages {17}{21}}}
\@writefile{nav}{\headcommand {\slideentry {3}{2}{2}{22/24}{Esempio di attività didattica}{0}}}
\@writefile{nav}{\headcommand {\beamer@framepages {22}{24}}}
\@writefile{toc}{\beamer@sectionintoc {4}{Metodologie di lavoro}{25}{0}{4}}
\@writefile{nav}{\headcommand {\beamer@sectionpages {11}{24}}}
\@writefile{nav}{\headcommand {\beamer@subsectionpages {17}{24}}}
\@writefile{nav}{\headcommand {\sectionentry {4}{Metodologie di lavoro}{25}{Metodologie di lavoro}{0}}}
\@writefile{toc}{\beamer@subsectionintoc {4}{1}{Tipi di attività}{25}{0}{4}}
\@writefile{nav}{\headcommand {\beamer@subsectionpages {25}{24}}}
\@writefile{nav}{\headcommand {\beamer@subsectionentry {0}{4}{1}{25}{Tipi di attività}}}
\@writefile{nav}{\headcommand {\slideentry {4}{1}{1}{25/30}{Tipi di attività}{0}}}
\@writefile{nav}{\headcommand {\beamer@framepages {25}{30}}}
\@writefile{toc}{\beamer@subsectionintoc {4}{2}{Schemi di interazione}{31}{0}{4}}
\@writefile{nav}{\headcommand {\beamer@subsectionpages {25}{30}}}
\@writefile{nav}{\headcommand {\beamer@subsectionentry {0}{4}{2}{31}{Schemi di interazione}}}
\@writefile{nav}{\headcommand {\slideentry {4}{2}{1}{31/36}{Schemi di interazione}{0}}}
\@writefile{nav}{\headcommand {\beamer@framepages {31}{36}}}
\@writefile{toc}{\beamer@subsectionintoc {4}{3}{Risorse e tecnologie}{37}{0}{4}}
\@writefile{nav}{\headcommand {\beamer@subsectionpages {31}{36}}}
\@writefile{nav}{\headcommand {\beamer@subsectionentry {0}{4}{3}{37}{Risorse e tecnologie}}}
\@writefile{nav}{\headcommand {\slideentry {4}{3}{1}{37/43}{Risorse e tecnologie}{0}}}
\@writefile{nav}{\headcommand {\beamer@framepages {37}{43}}}
\@writefile{nav}{\headcommand {\slideentry {4}{3}{2}{44/48}{Risorse e tecnologie}{0}}}
\@writefile{nav}{\headcommand {\beamer@framepages {44}{48}}}
\@writefile{toc}{\beamer@subsectionintoc {4}{4}{Forme di feedback}{49}{0}{4}}
\@writefile{nav}{\headcommand {\beamer@subsectionpages {37}{48}}}
\@writefile{nav}{\headcommand {\beamer@subsectionentry {0}{4}{4}{49}{Forme di feedback}}}
\@writefile{nav}{\headcommand {\slideentry {4}{4}{1}{49/54}{Forme di feedback}{0}}}
\@writefile{nav}{\headcommand {\beamer@framepages {49}{54}}}
\@writefile{toc}{\beamer@sectionintoc {5}{Obiettivi di apprendimento}{55}{0}{5}}
\@writefile{nav}{\headcommand {\beamer@sectionpages {25}{54}}}
\@writefile{nav}{\headcommand {\beamer@subsectionpages {49}{54}}}
\@writefile{nav}{\headcommand {\sectionentry {5}{Obiettivi di apprendimento}{55}{Obiettivi di apprendimento}{0}}}
\@writefile{nav}{\headcommand {\slideentry {5}{0}{1}{55/58}{}{0}}}
\@writefile{nav}{\headcommand {\beamer@framepages {55}{58}}}
\@writefile{toc}{\beamer@sectionintoc {6}{Criteri e modalità di valutazione}{59}{0}{6}}
\@writefile{nav}{\headcommand {\beamer@sectionpages {55}{58}}}
\@writefile{nav}{\headcommand {\beamer@subsectionpages {55}{58}}}
\@writefile{nav}{\headcommand {\sectionentry {6}{Criteri e modalità di valutazione}{59}{Criteri e modalità di valutazione}{0}}}
\@writefile{nav}{\headcommand {\slideentry {6}{0}{1}{59/62}{}{0}}}
\@writefile{nav}{\headcommand {\beamer@framepages {59}{62}}}
\@writefile{nav}{\headcommand {\slideentry {6}{0}{2}{63/63}{}{0}}}
\@writefile{nav}{\headcommand {\beamer@framepages {63}{63}}}
\@writefile{nav}{\headcommand {\beamer@partpages {1}{63}}}
\@writefile{nav}{\headcommand {\beamer@subsectionpages {59}{63}}}
\@writefile{nav}{\headcommand {\beamer@sectionpages {59}{63}}}
\@writefile{nav}{\headcommand {\beamer@documentpages {63}}}
\@writefile{nav}{\headcommand {\gdef \inserttotalframenumber {15}}}
