\relax 
\providecommand*{\memsetcounter}[2]{}
\providecommand\babel@aux[2]{}
\@nameuse{bbl@beforestart}
\babel@aux{italian}{}
\babel@aux{italian}{}
\memsetcounter{lastsheet}{4}
\memsetcounter{lastpage}{4}
